{
    "key": "group_5b6a22c3e8b2c",
    "title": "Call to Action",
    "fields": [
        {
            "key": "field_5a79caeb30480",
            "label": "Formato",
            "name": "formato",
            "type": "select",
            "instructions": "Selecione o formato que será utilizado.",
            "required": 0,
            "conditional_logic": 0,
            "wrapper": {
                "width": "",
                "class": "",
                "id": ""
            },
            "choices": {
                "Box Padrão": "Box Padrão",
                "Personalizado": "Personalizado"
            },
            "default_value": [],
            "allow_null": 1,
            "multiple": 0,
            "ui": 0,
            "return_format": "value",
            "ajax": 0,
            "placeholder": ""
        },
        {
            "key": "field_5a79ce8a81659",
            "label": "Padrão | Imagem Box",
            "name": "imagem_padrao",
            "type": "image",
            "instructions": "Insira a imagem que será utilizada no box.<br>\r\nA imagem aplicada terá o tamanho de 200x160px.<br>\r\nÉ importante ter essa proporção.",
            "required": 1,
            "conditional_logic": [
                [
                    {
                        "field": "field_5a79caeb30480",
                        "operator": "==",
                        "value": "Box Padrão"
                    }
                ]
            ],
            "wrapper": {
                "width": "",
                "class": "",
                "id": ""
            },
            "preview_size": "call_to_action",
            "library": "all",
            "return_format": "id",
            "min_width": 0,
            "min_height": 0,
            "min_size": 0,
            "max_width": 0,
            "max_height": 0,
            "max_size": 0,
            "mime_types": ""
        },
        {
            "key": "field_5a79cfad8324b",
            "label": "Padrão | Título Box",
            "name": "titulo_padrao",
            "type": "textarea",
            "instructions": "Insira o título do call to action.<br>\r\nMáximo de caracteres permitidos: 124",
            "required": 1,
            "conditional_logic": [
                [
                    {
                        "field": "field_5a79caeb30480",
                        "operator": "==",
                        "value": "Box Padrão"
                    }
                ]
            ],
            "wrapper": {
                "width": "",
                "class": "",
                "id": ""
            },
            "default_value": "",
            "placeholder": "",
            "maxlength": 124,
            "rows": 1,
            "new_lines": "br"
        },
        {
            "key": "field_5a79d02f8324c",
            "label": "Padrão | Subtítulo Box",
            "name": "subtitulo_padrao",
            "type": "textarea",
            "instructions": "Insira o título do call to action.<br>\r\nMáximo de caracteres permitidos: 133",
            "required": 1,
            "conditional_logic": [
                [
                    {
                        "field": "field_5a79caeb30480",
                        "operator": "==",
                        "value": "Box Padrão"
                    }
                ]
            ],
            "wrapper": {
                "width": "",
                "class": "",
                "id": ""
            },
            "default_value": "",
            "placeholder": "",
            "maxlength": 200,
            "rows": 2,
            "new_lines": "br"
        },
        {
            "key": "field_5a79d427a5b07",
            "label": "Padrão | Texto Botão",
            "name": "texto_botao",
            "type": "text",
            "instructions": "Insira a chamada do botão.<br>\r\nMáximo de caracteres permitidos: 50",
            "required": 1,
            "conditional_logic": [
                [
                    {
                        "field": "field_5a79caeb30480",
                        "operator": "==",
                        "value": "Box Padrão"
                    }
                ]
            ],
            "wrapper": {
                "width": "",
                "class": "",
                "id": ""
            },
            "default_value": "",
            "placeholder": "",
            "prepend": "",
            "append": "",
            "formatting": "none",
            "maxlength": 50
        },
        {
            "key": "field_5a79e7a906b7d",
            "label": "Personalizado | Imagem",
            "name": "imagem_personalizado",
            "type": "image",
            "instructions": "Insira a imagem que será utilizada no box.<br>\r\nA imagem aplicada <b>deverá<\/b> conter o tamanho de 700x260px <b>exato<\/b>.",
            "required": 1,
            "conditional_logic": [
                [
                    {
                        "field": "field_5a79caeb30480",
                        "operator": "==",
                        "value": "Personalizado"
                    }
                ]
            ],
            "wrapper": {
                "width": "",
                "class": "",
                "id": ""
            },
            "return_format": "id",
            "preview_size": "thumbnail",
            "library": "all",
            "min_width": "",
            "min_height": "",
            "min_size": "",
            "max_width": "",
            "max_height": "",
            "max_size": "",
            "mime_types": ""
        },
        {
            "key": "field_5a79e6da9b46b",
            "label": "Link",
            "name": "link",
            "type": "text",
            "instructions": "Inserir link completo do botão.<br>\r\n<b>Exemplo:<\/b> <i>http:\/\/www.site.com.br<\/i>",
            "required": 1,
            "conditional_logic": [
                [
                    {
                        "field": "field_5a79caeb30480",
                        "operator": "==",
                        "value": "Box Padrão"
                    }
                ],
                [
                    {
                        "field": "field_5a79caeb30480",
                        "operator": "==",
                        "value": "Reduzido"
                    }
                ],
                [
                    {
                        "field": "field_5a79caeb30480",
                        "operator": "==",
                        "value": "Personalizado"
                    }
                ]
            ],
            "wrapper": {
                "width": "",
                "class": "",
                "id": ""
            },
            "default_value": "",
            "placeholder": "Ex.: http:\/\/www.site.com.br",
            "prepend": "",
            "append": "",
            "formatting": "none",
            "maxlength": ""
        },
        {
            "key": "field_5a79d1d112325",
            "label": "Personalizar Cores",
            "name": "cores",
            "type": "radio",
            "instructions": "Deseja personalizar as cores do call to action?",
            "required": 1,
            "conditional_logic": [
                [
                    {
                        "field": "field_5a79caeb30480",
                        "operator": "==",
                        "value": "Box Padrão"
                    }
                ],
                [
                    {
                        "field": "field_5a79caeb30480",
                        "operator": "==",
                        "value": "Reduzido"
                    }
                ]
            ],
            "wrapper": {
                "width": "",
                "class": "",
                "id": ""
            },
            "choices": {
                "Sim": "Sim",
                "Não": "Não"
            },
            "other_choice": 0,
            "save_other_choice": 0,
            "default_value": "Não",
            "layout": "horizontal",
            "allow_null": 0,
            "return_format": "value"
        },
        {
            "key": "field_5a79cbd181651",
            "label": "Cor | Background",
            "name": "cor_background",
            "type": "color_picker",
            "instructions": "Selecione a cor de fundo do box.<br>\r\nCaso não selecionado, será aplicada a cor padrão.",
            "required": 0,
            "conditional_logic": [
                [
                    {
                        "field": "field_5a79d1d112325",
                        "operator": "==",
                        "value": "Sim"
                    }
                ]
            ],
            "wrapper": {
                "width": "",
                "class": "",
                "id": ""
            },
            "default_value": "#284468"
        },
        {
            "key": "field_5a79cca681653",
            "label": "Cor | Borda",
            "name": "cor_borda",
            "type": "color_picker",
            "instructions": "Selecione a cor da borda do box.<br>\r\nCaso não selecionado, será aplicada a cor padrão.",
            "required": 0,
            "conditional_logic": [
                [
                    {
                        "field": "field_5a79d1d112325",
                        "operator": "==",
                        "value": "Sim"
                    }
                ]
            ],
            "wrapper": {
                "width": "",
                "class": "",
                "id": ""
            },
            "default_value": "#FFFFFF"
        },
        {
            "key": "field_5a79cce081654",
            "label": "Cor | Título",
            "name": "cor_titulo",
            "type": "color_picker",
            "instructions": "Selecione a cor que será aplicada no título.<br>\r\nCaso não selecionado, será aplicada a cor padrão.",
            "required": 0,
            "conditional_logic": [
                [
                    {
                        "field": "field_5a79d1d112325",
                        "operator": "==",
                        "value": "Sim"
                    }
                ]
            ],
            "wrapper": {
                "width": "",
                "class": "",
                "id": ""
            },
            "default_value": "#FFFFFF"
        },
        {
            "key": "field_5a79cd2081655",
            "label": "Cor | Texto",
            "name": "cor_texto",
            "type": "color_picker",
            "instructions": "Selecione a cor que será aplicada no texto.<br>\r\nCaso não selecionado, será aplicada a cor padrão.",
            "required": 0,
            "conditional_logic": [
                [
                    {
                        "field": "field_5a79d1d112325",
                        "operator": "==",
                        "value": "Sim"
                    }
                ]
            ],
            "wrapper": {
                "width": "",
                "class": "",
                "id": ""
            },
            "default_value": "#FFFFFF"
        },
        {
            "key": "field_5a79cd4f81656",
            "label": "Cor | Botão | Fundo",
            "name": "cor_background_botao",
            "type": "color_picker",
            "instructions": "Selecione a cor que será aplicada no botão do box.<br>\r\nCaso não selecionado, será aplicada a cor padrão.",
            "required": 0,
            "conditional_logic": [
                [
                    {
                        "field": "field_5a79d1d112325",
                        "operator": "==",
                        "value": "Sim"
                    }
                ]
            ],
            "wrapper": {
                "width": "",
                "class": "",
                "id": ""
            },
            "default_value": "#B89C6A"
        },
        {
            "key": "field_5a79cda581657",
            "label": "Cor | Botão | Fundo Ativo",
            "name": "cor_background_botao_ativo",
            "type": "color_picker",
            "instructions": "Selecione a cor que será aplicada no mouseover do botão.<br>\r\nCaso não selecionado, será aplicada a cor padrão.",
            "required": 0,
            "conditional_logic": [
                [
                    {
                        "field": "field_5a79d1d112325",
                        "operator": "==",
                        "value": "Sim"
                    }
                ]
            ],
            "wrapper": {
                "width": "",
                "class": "",
                "id": ""
            },
            "default_value": "#888888"
        },
        {
            "key": "field_5a79cdfc81658",
            "label": "Cor | Botão | Texto",
            "name": "cor_texto_botao",
            "type": "color_picker",
            "instructions": "Selecione a cor que será aplicada no texto do botão.<br>\r\nEssa cor será aplicada nas duas condições (normal e ativo).<br>\r\nCaso não selecionado, será aplicada a cor padrão.",
            "required": 0,
            "conditional_logic": [
                [
                    {
                        "field": "field_5a79d1d112325",
                        "operator": "==",
                        "value": "Sim"
                    }
                ]
            ],
            "wrapper": {
                "width": "",
                "class": "",
                "id": ""
            },
            "default_value": "#FFFFFF"
        }
    ],
    "location": [
        [
            {
                "param": "post_type",
                "operator": "==",
                "value": "post"
            }
        ]
    ],
    "menu_order": 0,
    "position": "normal",
    "style": "default",
    "label_placement": "top",
    "instruction_placement": "label",
    "hide_on_screen": "",
    "active": 1,
    "description": "Inserção do Call to Action para os posts",
    "modified": 1561168806
}